{
    "tableName": {
        "DNB_CIRRUS_CCS_FSS_FEED": {
            "counterStart": "1"
        },
        "DNB_CIRRUS_CCS_FSS_FEED_ERROR": {
            "counterStart": "1"
        },
        "DNB_CIRRUS_PAYDEX_RATING_FEED": {
            "counterStart": "1"
        },
        "DNB_CIRRUS_PAYDEX_RATING_FEED_ERROR": {
            "counterStart": "1"
        },
        "DNB_CIRRUS_SUBJECT_FEED": {
            "counterStart": "1"
        },
        "DNB_CIRRUS_SUBJECT_FEED_ERROR": {
            "counterStart": "1"
        },
        "DNB_CIRRUS_BANKRUPTCY_FEED": {
            "counterStart": "1"
        },
        "DNB_CIRRUS_BANKRUPTCY_FEED_ERROR": {
            "counterStart": "1"
        },
        "DNB_CIRRUS_LINKAGE_FEED": {
            "counterStart": "1"
        },
        "DNB_CIRRUS_LINKAGE_FEED_ERROR": {
            "counterStart": "1"
        },
        "DNB_CIRRUS_FINANCIALS": {
            "counterStart": "1"
        },
        "DNB_CIRRUS_FINANCIALS_ERROR": {
            "counterStart": "1"
        },
        "DNB_CIRRUS_CCS_FSS_TREND": {
            "counterStart": "1"
        },
        "DNB_CIRRUS_CCS_FSS_TREND_ERROR": {
            "counterStart": "1"
        },
        "DNB_CIRRUS_GLOBAL_FEED": {
            "counterStart": "1"
        },
        "DNB_CIRRUS_GLOBAL_FEED_ERROR": {
            "counterStart": "1"
        },
        "DNB_CIRRUS_IDENTITY_FEED": {
            "counterStart": "1"
        },
        "DNB_CIRRUS_IDENTITY_FEED_ERROR": {
            "counterStart": "1"
        },
        "DNB_CIRRUS_PAYDEX_TREND": {
            "counterStart": "1"
        },
        "DNB_CIRRUS_PAYDEX_TREND_ERROR": {
            "counterStart": "1"
        }
    },
    "envDetails": {
    	"env": "DEV",
    	"flumeEventlogs": "/home/impadmin/dnbdev/dnbdynamodb/logs"
    },
    "proxyDetails": {
    	"proxyFlag": "FALSE",
    	"proxyHost": "bastion2.us.dnb.com",
    	"proxyPort": "80",
    	"region": "us-east-1"
    },
    "adminDetails": {
    	"credential_file_name": "/home/impadmin/Latest_jar/dnbdynamodb/sbin/cfg/dbCredentials.properties",
    	"create_all_table_path": "/home/impadmin/Latest_jar/dnbdynamodb/sbin/cfg/createtable.xml",
    	"export_output_dir": "/home/impadmin/Latest_jar/dnbdynamodb/exportdir",
    	"export_file_name": "dnb_cirrus_cic_dunsno_",
    	"export_table": "DNB_CIRRUS_CIC_INPUT",
    	"archive_table": "DNB_CIRRUS_CIC_INPUT_ARCHIVE",
    	"dnb_cirrus_feed_audit": "PROCESSED_DATE,PROCESSED_FILE,TOTAL_COUNT,ERROR_COUNT,SUCCESS_COUNT"
    }    
}
